Ensemble PCA • geoChronR
…
Nice! A summary plot that combines the major features is produced, but all of the components, are included in the “plotPCA” list that was exported.

For comparison with other datasets it can be useful to export quantile timeseries shown in the figures. plotTimeseriesEnsRibbons() can optionally be used to export the data rather than plotting them. The following will export the PC1 timeseries:

quantileData <- plotTimeseriesEnsRibbons(X = pcout$age,Y = pcout$PCs[,1,],export.quantiles = TRUE)

print(quantileData)

## # A tibble: 200 x 6
##     ages `0.025`   `0.25`   `0.5` `0.75` `0.975`
##    <dbl>   <dbl>    <dbl>   <dbl>  <dbl>   <dbl>
##  1 1408. -0.0641  0.0446  0.103   0.160    0.270
##  2 1410.  0.0159  0.0949  0.134   0.175    0.246
##  3 1413.  0.0524  0.124   0.169   0.205    0.284
##  4 1416.  0.101   0.174   0.209   0.238    0.287
##  5 1419.  0.0896  0.143   0.174   0.200    0.250
##  6 1422. -0.0149  0.0562  0.0909  0.129    0.206
##  7 1425. -0.0380  0.0172  0.0394  0.0679   0.121
##  8 1428. -0.0976 -0.0291  0.00767 0.0436   0.112
##  9 1431. -0.0716 -0.0179  0.0194  0.0567   0.124
## 10 1434. -0.0666  0.00276 0.0372  0.0807   0.142
## # … with 190 more rows
…
